:020000040010EA
:1000000018F09FE518F09FE518F09FE518F09FE5C0
:1000100018F09FE50000A0E120FF1FE520FF1FE58D
:10002000580010004000100044001000480010006C
:100030004C001000000000005000100054001000A0
:10004000FEFFFFEAFEFFFFEAFEFFFFEAFEFFFFEA18
:10005000FEFFFFEAFEFFFFEAC8009FE5C8109FE52C
:10006000081080E5FF00E0E30316A0E3601080E5E0
:10007000B8009FE50219A0E3041080E5B0009FE5F9
:10008000B0109FE5201080E5682090E5012012E285
:10009000FCFFFF0AA0109FE52C1080E5682090E58A
:1000A000042012E2FCFFFF0A0710A0E31C1001E28B
:1000B000301080E5682090E5082012E2FCFFFF0A7E
:1000C0000710A0E3301080E5682090E5082012E2D8
:1000D000FCFFFF0A64009FE5DBF021E300D0A0E114
:1000E000000040E2D7F021E300D0A0E1000040E2B0
:1000F000D1F021E300D0A0E1000040E2D2F021E302
:1001000000D0A0E1800040E2D3F021E300D0A0E1E4
:10011000080040E210F021E300D0A0E101AB4DE285
:100120001C009FE510FF2FE100FDFFFF010400A56B
:1001300040FDFFFF00FCFFFF01FF0000183F7C00B7
:100140000005200048011000000000EB2E0000EB2D
:100150002C008FE2000C90E800A08AE000B08BE059
:1001600001704AE20B005AE10000001A260000EB81
:100170000F00BAE818E04FE2010013E303F0471064
:1001800013FF2FE1CC030000EC030000102052E22B
:100190007800B0287800A128FBFFFF8A822EB0E10A
:1001A0003000B0283000A128004090450040814533
:1001B0001EFF2FE10030B0E30040B0E30050B0E399
:1001C0000060B0E3102052E27800A128FCFFFF8A13
:1001D000822EB0E13000A128003081451EFF2FE1C2
:1001E00001C08FE21CFF2FE11FB5059886460FBCAA
:1001F000009C02B07047000001C08FE21CFF2FE19D
:1002000030B47546AE4630BC704700001A0000EBB3
:100210000210A0E1F1FFFFEB1CC09FE50FC08CE0D6
:1002200001001CE30DE08F120FE0A0011CFF2FE185
:1002300001C08FE21CFF2FE100F050F8F000000039
:100240007847C04603002DE9EAFFFFEB0300BDE855
:10025000290000EB0C009FE50C109FE504209FE5B2
:1002600008309FE51EFF2FE1780020007804200071
:100270007800200070477047704700000E50A0E1E2
:100280001A0000EB05E0A0E10050B0E10D10A0E184
:100290000A30A0E10700C0E300D0A0E160D08DE209
:1002A00020402DE9EAFFFFEB2040BDE80060A0E31D
:1002B0000070A0E30080A0E300B0A0E30710C1E35A
:1002C00005C0A0E1C009ACE8C009ACE8C009ACE8D1
:1002D000C009ACE801D0A0E11EFF2FE110B5040079
:1002E000C046C0462000FFF7ABFF10BC08BC184753
:1002F00000009FE51EFF2FE11400200001C08FE2E7
:100300001CFF2FE101491820ABDFFEE726000200A9
:100310001EFF2FE10C119FE50C219FE5002092E5C7
:10032000001082E504119FE5001091E5101091E5A1
:10033000061681E3F4209FE5002092E5101082E587
:10034000EC109FE5001091E5001091E5061681E3A1
:10035000DC209FE5002092E5001082E5D0109FE5AB
:10036000001091E5101091E5061681E3C0209FE58D
:10037000002092E5101082E56010A0E3B4209FE514
:10038000002092E5041082E5AC109FE5A4209FE5D3
:10039000002092E5841082E5A0109FE594209FE55F
:1003A000002092E5341182E50210A0E384209FE54D
:1003B000002092E5201182E5190000EA70109FE507
:1003C000001091E5341091E5021681E360209FE56D
:1003D000002092E5341082E50000A0E3000000EA6E
:1003E000010080E258109FE5010050E1FBFFFF3A59
:1003F0003C109FE5001091E5301091E5021681E375
:100400002C209FE5002092E5301082E50000A0E35B
:10041000000000EA010080E224109FE5010050E1A5
:10042000FBFFFF3AE4FFFFEAAF710B030800200077
:10043000040020000C0020001000200048041000E0
:10044000300510007F8D5B0007002DE90000A0E360
:10045000CC0210E5010000E2000050E32800000A91
:10046000B4009FE50000D0E5010080E2FF0000E25B
:10047000A4109FE50000C1E5040050E31D00001A30
:1004800098109FE50010D1E5010081E2A01F80E0F7
:10049000C110A0E1811040E080209FE50010C2E57E
:1004A0000000A0E370109FE50000C1E5000082E2BB
:1004B0000000D0E5000050E30700000A60009FE55F
:1004C000000090E5300090E5010580E350109FE5C5
:1004D000001091E5300081E5060000EA40009FE54C
:1004E000000090E5340090E5010580E330109FE5C1
:1004F000001091E5340081E528009FE5000090E5BB
:10050000080090E50000A0E31C109FE5001091E5B5
:10051000300181E50700BDE804F05EE20100200043
:10052000000020000C002000080020001000200027
:1005300003002DE90000A0E30C109FE5001091E5F9
:10054000300181E50300BDE804F05EE21000200008
:100550007005100000002000140000008C01100045
:100560008405100014002000EC040000B401100009
:100570000000000000FCFFFF30FDFFFF00F4FFFF64
:0405800000F0FFFF89
:04000005001001489E
:00000001FF
